[
    {
        "name":"France",
        "executive": "Emmanuel Macron",
        "people_nbr": 67390000,
        "size": 632734,
        "continent": "Europe",
        "capital": "Paris",
        "telephone": "+33"
    },
    {
        "name":"Portugal",
        "executive": "Marcelo Rebelo de Sousa",
        "people_nbr": 10310000,
        "size": 92090,
        "continent": "Europe",
        "capital": "Lisbonne",
        "telephone": "+33"
    },
    {
        "name":"Canada",
        "executive": "Elisebeth II",
        "people_nbr": 38082857,
        "size": 9984670,
        "continent": "Amerique",
        "capital": "Ottawa",
        "telephone": "+1"
    }
]